^C:\USERS\JOHN\DESKTOP\KOMPILOTORY1\KOMPILOTORY1\KOMPILOTORY1.CPP
C:\USERS\JOHN\DESKTOP\KOMPILOTORY1\KOMPILOTORY1\X64\DEBUG\VC143.PDB
C:\USERS\JOHN\DESKTOP\KOMPILOTORY1\KOMPILOTORY1\X64\DEBUG\VC143.IDB
C:\USERS\JOHN\DESKTOP\KOMPILOTORY1\KOMPILOTORY1\X64\DEBUG\KOMPILOTORY1.OBJ
